Load projections
…
Code

npsper <- tnanndat |> 
  filter(bay_segment == 'Old Tampa Bay') |> 
  filter(year >= 2000 & year <= 2021) |> 
  pivot_wider(names_from = source, values_from = tn_load) |> 
  mutate(
    nps_percent = NPS / (AD + DPS + GWS + IPS + NPS) * 100, 
    tn_change = NULL
  ) |> 
  select(year, nps_percent)
npsper

# A tibble: 22 × 2
    year nps_percent
   <dbl>       <dbl>
 1  2000        41.3
 2  2001        49.0
 3  2002        50.2
 4  2003        59.0
 5  2004        66.0
 6  2005        48.6
 7  2006        52.7
 8  2007        43.9
 9  2008        50.4
10  2009        51.3
# ℹ 12 more rows
…
