Load projections all bay segments
…
The allprop object is joined to the observed and projected monthly loads by bay segment and then the loads are multiplied by the proportions.

Code

out <- allprop |> 
  left_join(projected, by = 'bay_segment', relationship = c('many-to-many')) |> 
  mutate(val = val * prop)
out

# A tibble: 16,896 × 9
   modelseg bay_segment    prop  year month var   period     val date      
      <dbl> <fct>         <dbl> <dbl> <dbl> <fct> <fct>    <dbl> <date>    
 1        1 Old Tampa Bay 0.766  2000     1 TN    observed 12.3  2000-01-01
 2        1 Old Tampa Bay 0.766  2000     1 TP    observed  6.88 2000-01-01
 3        1 Old Tampa Bay 0.766  2000     1 TSS   observed 94.4  2000-01-01
 4        1 Old Tampa Bay 0.766  2000     1 HY    observed 16.0  2000-01-01
 5        1 Old Tampa Bay 0.766  2000     2 TN    observed  9.63 2000-02-01
 6        1 Old Tampa Bay 0.766  2000     2 TP    observed  6.38 2000-02-01
 7        1 Old Tampa Bay 0.766  2000     2 TSS   observed 79.8  2000-02-01
 8        1 Old Tampa Bay 0.766  2000     2 HY    observed  9.12 2000-02-01
 9        1 Old Tampa Bay 0.766  2000     3 TN    observed  8.42 2000-03-01
10        1 Old Tampa Bay 0.766  2000     3 TP    observed  6.19 2000-03-01
# ℹ 16,886 more rows
…
