Assigning OTB loadings to sub-segments
…
The props object is joined to the original loading data using the gaged/ungaged column in each. The load is proportioned for each year/month/location by multiplying the original by the prop column in props.

datprop <- dat |>
  select(basin, source, year, month, tnload) |>
  left_join(props, by = c('basin' = 'NEWGAGE'), relationship = 'many-to-many') |>
  mutate(tnload = tnload * prop)
datprop

# A tibble: 1,380 × 8
   basin    source  year month tnload subsegment  acres  prop
   <chr>    <chr>  <dbl> <dbl>  <dbl> <chr>       <dbl> <dbl>
 1 02306647 NPS     2017     1  0.270 NE         12231.     1
 2 02306647 NPS     2017     2  0.355 NE         12231.     1
 3 02306647 NPS     2017     3  0.280 NE         12231.     1
 4 02306647 NPS     2017     4  0.225 NE         12231.     1
 5 02306647 NPS     2017     5  0.195 NE         12231.     1
 6 02306647 NPS     2017     6  3.37  NE         12231.     1
 7 02306647 NPS     2017     7  3.58  NE         12231.     1
 8 02306647 NPS     2017     8  7.54  NE         12231.     1
 9 02306647 NPS     2017     9 12.2   NE         12231.     1
10 02306647 NPS     2017    10  2.20  NE         12231.     1
# ℹ 1,370 more rows
…
